^F:\PROJECT\UNREAL\LAB\LAB_13\LAB_13\X64\DEBUG\HELPERS.OBJ|F:\PROJECT\UNREAL\LAB\LAB_13\LAB_13\X64\DEBUG\LAB_13.OBJ
F:\PROJECT\UNREAL\LAB\LAB_13\LAB_13\X64\DEBUG\LAB_13.EXE
F:\PROJECT\UNREAL\LAB\LAB_13\LAB_13\X64\DEBUG\LAB_13.ILK
F:\PROJECT\UNREAL\LAB\LAB_13\LAB_13\X64\DEBUG\LAB_13.PDB
